…
`thisJob$id` (af1c9bf4-45ac-4f41-b563-fc7f53676db8) is the unique Cromwell ID for your entire workflow - you can use that to request all sorts of metadata!!!

## Now get all your metadata and track the workflow!!

Return a data frame of all jobs run in the past number of days (uses your database)


```r
cromwell_jobs(days = 2)
#> Querying cromwell for jobs in the last 2 days.
#> # A tibble: 52 × 8
#>    workflow_id metadataArchiveStatus workflow_name start status submission end  
#>    <chr>       <chr>                 <chr>         <chr> <chr>  <chr>      <chr>
#>  1 8c418d8c-c… Unarchived            test          2024… Runni… 2024-01-0… <NA> 
#>  2 53ac66b1-a… Unarchived            test          2024… Succe… 2024-01-0… 2024…
#>  3 f6f919f5-4… Unarchived            test          2024… Succe… 2024-01-0… 2024…
#>  4 f7464c7e-9… Unarchived            test          2024… Succe… 2024-01-0… 2024…
#>  5 0a286772-2… Unarchived            test          2024… Succe… 2024-01-0… 2024…
#>  6 b0be7e6e-6… Unarchived            test          2024… Succe… 2024-01-0… 2024…
#>  7 700c3598-9… Unarchived            test          2024… Succe… 2024-01-0… 2024…
#>  8 04bbe5ab-b… Unarchived            test          2024… Succe… 2024-01-0… 2024…
#>  9 612b4a6c-4… Unarchived            test          2024… Succe… 2024-01-0… 2024…
#> 10 088fb55e-2… Unarchived            test          2024… Succe… 2024-01-0… 2024…
#> # ℹ 42 more rows
#> # ℹ 1 more variable: workflowDuration <chr>
```
…
